<?xml version="1.0" encoding="UTF-8"?>
<testsuite name="Api.TestRunner.GetApiTestRunner" tests="1" skipped="0" failures="0" errors="0" timestamp="2023-03-23T12:40:28" hostname="DESKTOP-257VOMS" time="1.465">
  <properties/>
  <testcase name="runScenario[0](&quot;get api check of pages&quot;, &quot;Optional.empty&quot;)" classname="Api.TestRunner.GetApiTestRunner" time="1.465"/>
  <system-out><![CDATA[
@getApi
Scenario Outline: get api check of pages # src/test/resources/Feature/Api/getApi.feature:10
  Given user has the base api            # Api.StepDefinition.GetApiStepDefs.userHasTheBaseApi()
https://reqres.in/api/users?page=2
Control here in api call
http://localhosthttps://reqres.in/api/users?page=2
{"page":2,"per_page":6,"total":12,"total_pages":2,"data":[{"id":7,"email":"michael.lawson@reqres.in","first_name":"Michael","last_name":"Lawson","avatar":"https://reqres.in/img/faces/7-image.jpg"},{"id":8,"email":"lindsay.ferguson@reqres.in","first_name":"Lindsay","last_name":"Ferguson","avatar":"https://reqres.in/img/faces/8-image.jpg"},{"id":9,"email":"tobias.funke@reqres.in","first_name":"Tobias","last_name":"Funke","avatar":"https://reqres.in/img/faces/9-image.jpg"},{"id":10,"email":"byron.fields@reqres.in","first_name":"Byron","last_name":"Fields","avatar":"https://reqres.in/img/faces/10-image.jpg"},{"id":11,"email":"george.edwards@reqres.in","first_name":"George","last_name":"Edwards","avatar":"https://reqres.in/img/faces/11-image.jpg"},{"id":12,"email":"rachel.howell@reqres.in","first_name":"Rachel","last_name":"Howell","avatar":"https://reqres.in/img/faces/12-image.jpg"}],"support":{"url":"https://reqres.in/#support-heading","text":"To keep ReqRes free, contributions towards server costs are appreciated!"}}
  When user call the '?page' and '2'     # Api.StepDefinition.GetApiStepDefs.userCallTheParameterAndParamsValue(java.lang.String,java.lang.String)
https://reqres.in/api/users?page=2
Michael
  Then it will return valid data         # Api.StepDefinition.GetApiStepDefs.itWillReturnValidData()
]]></system-out>
  <system-err><![CDATA[SLF4J: No SLF4J providers were found.
SLF4J: Defaulting to no-operation (NOP) logger implementation
SLF4J: See https://www.slf4j.org/codes.html#noProviders for further details.
]]></system-err>
</testsuite>
